{
	"info": {
		"_postman_id": "c4664790-f281-48ca-b6a2-d97c85c691a6",
		"name": "Projet_nodejs",
		"schema": "https://schema.getpostman.com/json/collection/v2.1.0/collection.json"
	},
	"item": [
		{
			"name": "Send message",
			"request": {
				"auth": {
					"type": "bearer",
					"bearer": [
						{
							"key": "token",
							"value": "eyJhbGciOiJIUzI1NiIsInR5cCI6IkpXVCJ9.eyJlbWFpbCI6InRlc3RAZ21haWwuY29tIiwidXNlcklkIjoiNjJkOTBjZWNiNDliZWM0MjQyMGQxYWQyIiwiaWF0IjoxNjU4NDk1NzI2LCJleHAiOjE2NTg0OTkzMjZ9._MwWNGKag_OhxKFAXGv0OLIAizRoPkrRcPtlNiHYC8I",
							"type": "string"
						}
					]
				},
				"method": "POST",
				"header": [],
				"body": {
					"mode": "raw",
					"raw": "{\n    \"title\": \"Hello\",\n    \"message\": \"Hello World 2\"\n}",
					"options": {
						"raw": {
							"language": "json"
						}
					}
				},
				"url": {
					"raw": "localhost:8080/topic/message",
					"host": [
						"localhost"
					],
					"port": "8080",
					"path": [
						"topic",
						"message"
					]
				}
			},
			"response": []
		},
		{
			"name": "Get all messages",
			"request": {
				"auth": {
					"type": "bearer",
					"bearer": [
						{
							"key": "token",
							"value": "eyJhbGciOiJIUzI1NiIsInR5cCI6IkpXVCJ9.eyJlbWFpbCI6InRlc3RAZ21haWwuY29tIiwidXNlcklkIjoiNjJkOTBjZWNiNDliZWM0MjQyMGQxYWQyIiwiaWF0IjoxNjU4NDk1NzI2LCJleHAiOjE2NTg0OTkzMjZ9._MwWNGKag_OhxKFAXGv0OLIAizRoPkrRcPtlNiHYC8I",
							"type": "string"
						}
					]
				},
				"method": "GET",
				"header": [],
				"url": {
					"raw": "localhost:8080/topic/messages",
					"host": [
						"localhost"
					],
					"port": "8080",
					"path": [
						"topic",
						"messages"
					]
				}
			},
			"response": []
		},
		{
			"name": "Signup",
			"request": {
				"method": "POST",
				"header": [],
				"body": {
					"mode": "raw",
					"raw": "{\n    \"email\": \"test@gmail.com\",\n    \"password\": \"test\",\n    \"pseudo\": \"test\",\n    \"dateNaissance\": \"2007/29/12\",\n    \"name\": \"Quentin\",\n    \"presentation\": \"\",\n    \"photo\": \"\",\n    \"pays\": \"\"\n}",
					"options": {
						"raw": {
							"language": "json"
						}
					}
				},
				"url": {
					"raw": "localhost:8080/auth/signup",
					"host": [
						"localhost"
					],
					"port": "8080",
					"path": [
						"auth",
						"signup"
					]
				}
			},
			"response": []
		},
		{
			"name": "Login",
			"request": {
				"method": "POST",
				"header": [],
				"body": {
					"mode": "raw",
					"raw": "{\n    \"email\": \"test@gmail.com\",\n    \"password\": \"test\"\n}",
					"options": {
						"raw": {
							"language": "json"
						}
					}
				},
				"url": {
					"raw": "localhost:8080/auth/login",
					"host": [
						"localhost"
					],
					"port": "8080",
					"path": [
						"auth",
						"login"
					]
				}
			},
			"response": []
		},
		{
			"name": "Send Image",
			"request": {
				"method": "POST",
				"header": [
					{
						"warning": "This is a duplicate header and will be overridden by the Content-Type header generated by Postman.",
						"key": "Content-Type",
						"value": "application/json",
						"type": "default"
					}
				],
				"body": {
					"mode": "formdata",
					"formdata": [
						{
							"key": "image",
							"type": "file",
							"src": "/home/quentin/Images/Bitcoin.jpg"
						},
						{
							"key": "title",
							"value": "Bitcoin23",
							"type": "default"
						},
						{
							"key": "content",
							"value": "Test123",
							"type": "default"
						},
						{
							"key": "creator",
							"value": "Quentin",
							"type": "default"
						}
					],
					"options": {
						"raw": {
							"language": "json"
						}
					}
				},
				"url": {
					"raw": "localhost:8080/file/upload",
					"host": [
						"localhost"
					],
					"port": "8080",
					"path": [
						"file",
						"upload"
					]
				}
			},
			"response": []
		},
		{
			"name": "Get all images",
			"request": {
				"method": "GET",
				"header": [],
				"url": {
					"raw": "localhost:8080/file/getAll",
					"host": [
						"localhost"
					],
					"port": "8080",
					"path": [
						"file",
						"getAll"
					]
				}
			},
			"response": []
		},
		{
			"name": "Get one image",
			"request": {
				"method": "GET",
				"header": [],
				"url": {
					"raw": "localhost:8080/file/get/62d952afc035c1ebd33dbc0f",
					"host": [
						"localhost"
					],
					"port": "8080",
					"path": [
						"file",
						"get",
						"62d952afc035c1ebd33dbc0f"
					]
				}
			},
			"response": []
		},
		{
			"name": "Update message",
			"request": {
				"auth": {
					"type": "bearer",
					"bearer": [
						{
							"key": "token",
							"value": "eyJhbGciOiJIUzI1NiIsInR5cCI6IkpXVCJ9.eyJlbWFpbCI6InRlc3RAZ21haWwuY29tIiwidXNlcklkIjoiNjJkOTBjZWNiNDliZWM0MjQyMGQxYWQyIiwiaWF0IjoxNjU4NDk1NzI2LCJleHAiOjE2NTg0OTkzMjZ9._MwWNGKag_OhxKFAXGv0OLIAizRoPkrRcPtlNiHYC8I",
							"type": "string"
						}
					]
				},
				"method": "PUT",
				"header": [],
				"body": {
					"mode": "raw",
					"raw": "{\n    \"title\": \"Hello\",\n    \"message\": \"Hello World 3\"\n}",
					"options": {
						"raw": {
							"language": "json"
						}
					}
				},
				"url": {
					"raw": "localhost:8080/topic/message/62d8273eb33463b3bdfe555d",
					"host": [
						"localhost"
					],
					"port": "8080",
					"path": [
						"topic",
						"message",
						"62d8273eb33463b3bdfe555d"
					]
				}
			},
			"response": []
		},
		{
			"name": "Delete message",
			"request": {
				"auth": {
					"type": "bearer",
					"bearer": [
						{
							"key": "token",
							"value": "eyJhbGciOiJIUzI1NiIsInR5cCI6IkpXVCJ9.eyJlbWFpbCI6InRlc3RAZ21haWwuY29tIiwidXNlcklkIjoiNjJkOTBjZWNiNDliZWM0MjQyMGQxYWQyIiwiaWF0IjoxNjU4NDk1NzI2LCJleHAiOjE2NTg0OTkzMjZ9._MwWNGKag_OhxKFAXGv0OLIAizRoPkrRcPtlNiHYC8I",
							"type": "string"
						}
					]
				},
				"method": "DELETE",
				"header": [],
				"url": {
					"raw": "localhost:8080/topic/message/62d8273eb33463b3bdfe555d",
					"host": [
						"localhost"
					],
					"port": "8080",
					"path": [
						"topic",
						"message",
						"62d8273eb33463b3bdfe555d"
					]
				}
			},
			"response": []
		}
	]
}